<svg xmlns="http://www.w3.org/2000/svg" width="23" height="50" viewBox="0 0 23 50">
  <path d="M5 9.684v6.883H0V25h5v25h10V25h7.037s.652-4.051.963-8.463h-8v-5.756c0-.861 1.335-2.018 2.436-2.018H23V0h-7.564C4.719 0 5 8.426 5 9.684z" fill="white"/>
</svg>
